Корреляция и регрессия
…
## # A tibble: 2 × 2
##   s.deletion number
##       <fctr>  <int>
## 1         no   3755
## 2        yes   5091

dat %>% 
  group_by(s.deletion, gramm.cat, phon.cont) %>% 
  summarize(number = n())

## Source: local data frame [26 x 4]
## Groups: s.deletion, gramm.cat [?]
## 
##    s.deletion         gramm.cat phon.cont number
##        <fctr>            <fctr>    <fctr>  <int>
## 1          no         adjective consonant    261
## 2          no         adjective     pause     22
## 3          no         adjective     vowel     28
## 4          no        determiner consonant    678
## 5          no        determiner     vowel    111
## 6          no              noun consonant    418
## 7          no              noun     pause    132
## 8          no              noun     vowel    124
## 9          no separate morpheme consonant   1361
## 10         no separate morpheme     pause    146
## # ... with 16 more rows
