Работа с веб-страницами. Обработка текста. Пакет rvest. Пакет tidytext
…
Эти ребята вставили стопслова!

data(stop_words)
nobel_laureates %>%
  anti_join(stop_words) %>% 
  count(word, sort = TRUE)

## # A tibble: 27,586 × 2
##          word     n
##         <chr> <int>
## 1   published   721
## 2        time   683
## 3        life   623
## 4       prize   613
## 5       wrote   599
## 6         war   597
## 7  literature   574
## 8       world   509
## 9       nobel   475
## 10       book   454
## # ... with 27,576 more rows
…
